global\wait.class
global\alerts.class
global\bootstrap.class
Selenium\Bestseller\FooterMenu.class
Selenium\Bestseller\Page.class
Selenium\Bestseller\TopMenu.class
Utilities\TestConfig.class
Selenium\Bestseller\App.class
Utilities\CustomListeners.class
bestseller\pages\DressSectionPage.class
global\button.class
Utilities\MonitoringMail$1.class
Utilities\MonitoringMail$SMTPAuthenticator.class
Utilities\RoughWork.class
Utilities\MonitoringMail.class
Utilities\ExtentManager.class
bestseller\pages\HomePage.class
